{"trades":[{"_id":"69b1894df11f7fcf274bb556","userId":"demo-disciplined","exchange":"binance","symbol":"SOLUSDT","tradeId":"syn-disciplined-SOLUSDT-421540","orderId":"ord-disciplined-SOLUSDT-531300","side":"BUY","orderType":"LIMIT","isMaker":true,"executionPrice":98.82406627579216,"quantity":0.2971193954383834,"notional":29.3625468266261,"fee":0.00587250936532522,"feeAsset":"USDT","executedAt":"2024-01-31T14:22:16.208Z","__v":0,"createdAt":"2026-03-11T15:25:01.714Z","updatedAt":"2026-03-11T20:28:17.748Z","arrivalPriceProxy":98.86412744784438,"exchangeScore":40,"feeScore":100,"fillGrade":"B","fillScore":89.75,"slippageScore":100,"spreadBps":3.5780011056707393,"timingScore":95,"vwap5min":98.86137936341704},{"_id":"69b1894df11f7fcf274bb519","userId":"demo-disciplined","exchange":"binance","symbol":"BTCUSDT","tradeId":"syn-disciplined-BTCUSDT-819956","orderId":"ord-disciplined-BTCUSDT-13666","side":"SELL","orderType":"LIMIT","isMaker":true,"executionPrice":42616.5102150403,"quantity":0.004715112189032801,"notional":200.94162676897741,"fee":0.04018832535379548,"feeAsset":"USDT","executedAt":"2024-01-31T13:03:34.947Z","__v":0,"createdAt":"2026-03-11T15:25:01.714Z","updatedAt":"2026-03-11T20:28:06.378Z","arrivalPriceProxy":42626.55323106486,"exchangeScore":100,"feeScore":100,"fillGrade":"A","fillScore":98.75,"slippageScore":100,"spreadBps":1.1126086788057097,"timingScore":95,"vwap5min":42608.34256510053}],"total":138,"page":1,"pages":69}